{
  "groups": [
    {
      "type": "Recommended Places",
      "name": "recommended",
      "items": [
        {
          "reasons": {
            "count": 0,
            "items": [
              {
                "summary": "This spot is popular",
                "type": "general",
                "reasonName": "globalInteractionReason"
              }
            ]
          },
          "venue": {
            "id": "4d3f2f47ac038eec8f8b6cfc",
            "name": "Guarantee",
            "contact": {
              "phone": "+302109226924",
              "formattedPhone": "+30 21 0922 6924",
              "facebook": "413033978819824",
              "facebookUsername": "guarantee.sandwiches",
              "facebookName": "Guarantee"
            },
            "location": {
              "address": "Βείκου 41",
              "crossStreet": "Στρατηγού Κοντούλη",
              "lat": 37.96608884823017,
              "lng": 23.72599348425865,
              "labeledLatLngs": [
                {
                  "label": "display",
                  "lat": 37.96608884823017,
                  "lng": 23.72599348425865
                }
              ],
              "postalCode": "117 42",
              "cc": "GR",
              "city": "Athens",
              "state": "Attica",
              "country": "Greece",
              "formattedAddress": [
                "Βείκου 41 (Στρατηγού Κοντούλη)",
                "117 42 Athens, Attica",
                "Greece"
              ]
            },
            "categories": [
              {
                "id": "4bf58dd8d48988d1c5941735",
                "name": "Sandwich Place",
                "pluralName": "Sandwich Places",
                "shortName": "Sandwiches",
                "icon": {
                  "prefix": "https:\/\/ss3.4sqi.net\/img\/categories_v2\/food\/deli_",
                  "suffix": ".png"
                },
                "primary": true
              }
            ],
            "verified": false,
            "stats": {
              "checkinsCount": 868,
              "usersCount": 476,
              "tipCount": 99
            },
            "price": {
              "tier": 1,
              "message": "Cheap",
              "currency": "\u20ac"
            },
            "rating": 9.6,
            "ratingColor": "00B551",
            "ratingSignals": 311,
            "allowMenuUrlEdit": true,
            "beenHere": {
              "count": 0,
              "marked": false,
              "lastCheckinExpiredAt": 0
            },
            "hours": {
              "status": "Closed until 10:00 AM tomorrow",
              "isOpen": false,
              "isLocalHoliday": false
            },
            "photos": {
              "count": 0,
              "groups": []
            },
            "hereNow": {
              "count": 0,
              "summary": "Nobody here",
              "groups": []
            }
          },
          "tips": [
            {
              "id": "5156d3bae4b0c70f5314f075",
              "createdAt": 1364644794,
              "text": "Respect! τα καλυτερα!",
              "type": "user",
              "canonicalUrl": "https:\/\/foursquare.com\/item\/5156d3bae4b0c70f5314f075",
              "photo": {
                "id": "5156d3bee4b0c35fc7868881",
                "createdAt": 1364644798,
                "source": {
                  "name": "Foursquare for iOS",
                  "url": "https:\/\/foursquare.com\/download\/#\/iphone"
                },
                "prefix": "https:\/\/igx.4sqi.net\/img\/general\/",
                "suffix": "\/1260896_XWM60Xgq1b4U696sIoe34h06S9LTTlcUMnHx9UrzteQ.jpg",
                "width": 717,
                "height": 959,
                "visibility": "public"
              },
              "photourl": "https:\/\/igx.4sqi.net\/img\/general\/original\/1260896_XWM60Xgq1b4U696sIoe34h06S9LTTlcUMnHx9UrzteQ.jpg",
              "likes": {
                "count": 10,
                "groups": [],
                "summary": "10 likes"
              },
              "logView": true,
              "agreeCount": 10,
              "disagreeCount": 0,
              "todo": {
                "count": 0
              },
              "user": {
                "id": "1260896",
                "firstName": "Zozela",
                "gender": "female",
                "photo": {
                  "prefix": "https:\/\/igx.4sqi.net\/img\/user\/",
                  "suffix": "\/2APVTM4ADCDP02WM.jpg"
                }
              }
            }
          ],
          "referralId": "e-0-4d3f2f47ac038eec8f8b6cfc-0"
        },
        {
          "reasons": {
            "count": 0,
            "items": [
              {
                "summary": "This spot is popular",
                "type": "general",
                "reasonName": "globalInteractionReason"
              }
            ]
          },
          "venue": {
            "id": "510b7fe1e4b077915d918e43",
            "name": "Stavros Niarchos Foundation Cultural Center (ΚΠΙΣΝ - Κέντρο Πολιτισμού Ίδρυμα Σταύρος Νιάρχος)",
            "contact": {
              "phone": "+302108778396",
              "formattedPhone": "+30 21 0877 8396",
              "facebook": "177397525629672",
              "facebookUsername": "SNFCC",
              "facebookName": "Stavros Niarchos Foundation Cultural Center"
            },
            "location": {
              "address": "Δέλτα Φαλήρου",
              "crossStreet": "Λεωφ. Ποσειδώνος",
              "lat": 37.941680304099954,
              "lng": 23.694874014719336,
              "labeledLatLngs": [
                {
                  "label": "display",
                  "lat": 37.941680304099954,
                  "lng": 23.694874014719336
                }
              ],
              "postalCode": "176 74",
              "cc": "GR",
              "city": "Kallithea",
              "state": "Attica",
              "country": "Greece",
              "formattedAddress": [
                "Δέλτα Φαλήρου (Λεωφ. Ποσειδώνος)",
                "176 74 Kallithea, Attica",
                "Greece"
              ]
            },
            "categories": [
              {
                "id": "52e81612bcbc57f1066b7a32",
                "name": "Cultural Center",
                "pluralName": "Cultural Centers",
                "shortName": "Cultural Center",
                "icon": {
                  "prefix": "https:\/\/ss3.4sqi.net\/img\/categories_v2\/building\/default_",
                  "suffix": ".png"
                },
                "primary": true
              }
            ],
            "verified": false,
            "stats": {
              "checkinsCount": 9103,
              "usersCount": 4171,
              "tipCount": 79
            },
            "url": "http:\/\/www.snfcc.org\/default.aspx",
            "rating": 9.6,
            "ratingColor": "00B551",
            "ratingSignals": 878,
            "venueRatingBlacklisted": true,
            "allowMenuUrlEdit": true,
            "beenHere": {
              "count": 0,
              "marked": false,
              "lastCheckinExpiredAt": 0
            },
            "hours": {
              "status": "Open until 10:00 PM",
              "isOpen": true,
              "isLocalHoliday": false
            },
            "photos": {
              "count": 0,
              "groups": []
            },
            "hereNow": {
              "count": 3,
              "summary": "3 people are here",
              "groups": [
                {
                  "type": "others",
                  "name": "Other people here",
                  "count": 3,
                  "items": []
                }
              ]
            }
          },
          "tips": [
            {
              "id": "530fc32a11d2929c6646f8d7",
              "createdAt": 1393541930,
              "text": "Photo by Yiorgis Yerolymbos, TEDxThessaloniki 2013 speaker. Follow the link below to watch his talk.",
              "type": "user",
              "url": "http:\/\/tedxth.es\/yerolymbos",
              "canonicalUrl": "https:\/\/foursquare.com\/item\/530fc32a11d2929c6646f8d7",
              "photo": {
                "id": "530fc32b498eeb928774c3a5",
                "createdAt": 1393541931,
                "source": {
                  "name": "Foursquare Web",
                  "url": "https:\/\/foursquare.com"
                },
                "prefix": "https:\/\/igx.4sqi.net\/img\/general\/",
                "suffix": "\/80051281_JaIRLx8pKj1fiQPahcmAUehSYKJcVqQsF8LFnnZbhqw.jpg",
                "width": 960,
                "height": 539,
                "visibility": "public"
              },
              "photourl": "https:\/\/igx.4sqi.net\/img\/general\/original\/80051281_JaIRLx8pKj1fiQPahcmAUehSYKJcVqQsF8LFnnZbhqw.jpg",
              "likes": {
                "count": 6,
                "groups": [],
                "summary": "6 likes"
              },
              "logView": true,
              "editedAt": 1393585682,
              "agreeCount": 6,
              "disagreeCount": 0,
              "todo": {
                "count": 0
              },
              "user": {
                "id": "80051281",
                "firstName": "TEDxThessaloniki",
                "gender": "none",
                "photo": {
                  "prefix": "https:\/\/igx.4sqi.net\/img\/user\/",
                  "suffix": "\/80051281-QUFPCAOSMCOHGUOX.png"
                },
                "type": "page"
              }
            }
          ],
          "referralId": "e-0-510b7fe1e4b077915d918e43-1"
        },
        {
          "reasons": {
            "count": 0,
            "items": [
              {
                "summary": "This spot is popular",
                "type": "general",
                "reasonName": "globalInteractionReason"
              }
            ]
          },
          "venue": {
            "id": "4adcdadff964a5205b5821e3",
            "name": "Acropolis of Athens (Ακρόπολη Αθηνών)",
            "contact": {
              "phone": "+302103214172",
              "formattedPhone": "+30 21 0321 4172"
            },
            "location": {
              "address": "Ακρόπολη Αθηνών",
              "lat": 37.969475430881744,
              "lng": 23.72505689829663,
              "cc": "GR",
              "city": "Athens",
              "state": "Attica",
              "country": "Greece",
              "formattedAddress": [
                "Ακρόπολη Αθηνών",
                "Athens, Attica",
                "Greece"
              ]
            },
            "categories": [
              {
                "id": "4deefb944765f83613cdba6e",
                "name": "Historic Site",
                "pluralName": "Historic Sites",
                "shortName": "Historic Site",
                "icon": {
                  "prefix": "https:\/\/ss3.4sqi.net\/img\/categories_v2\/arts_entertainment\/historicsite_",
                  "suffix": ".png"
                },
                "primary": true
              }
            ],
            "verified": false,
            "stats": {
              "checkinsCount": 35765,
              "usersCount": 26475,
              "tipCount": 327
            },
            "url": "http:\/\/odysseus.culture.gr\/h\/3\/eh351.jsp?obj_id=2384",
            "rating": 9.6,
            "ratingColor": "00B551",
            "ratingSignals": 2969,
            "beenHere": {
              "count": 0,
              "marked": false,
              "lastCheckinExpiredAt": 0
            },
            "hours": {
              "status": "Closed until 8:00 AM tomorrow",
              "isOpen": false,
              "isLocalHoliday": false
            },
            "photos": {
              "count": 0,
              "groups": []
            },
            "hereNow": {
              "count": 1,
              "summary": "One other person is here",
              "groups": [
                {
                  "type": "others",
                  "name": "Other people here",
                  "count": 1,
                  "items": []
                }
              ]
            }
          },
          "tips": [
            {
              "id": "4e71f8d7b3adaac7d7ee0c4f",
              "createdAt": 1316092119,
              "text": "The Acropolis of Athens! The greatest and finest sanctuary of ancient Athens. The imposing Parthenon is the most magnificent creation of Athenian democracy at the height of its power.",
              "type": "user",
              "url": "http:\/\/www.visitgreece.gr\/portal\/site\/eot\/menuitem.f6461d577e1bafc0ace49610451000a0\/?vgnextoid=73fe2c7e4a82d110VgnVCM100000460014acRCRD&lang_choosen=en",
              "canonicalUrl": "https:\/\/foursquare.com\/item\/4e71f8d7b3adaac7d7ee0c4f",
              "likes": {
                "count": 152,
                "groups": [],
                "summary": "152 likes"
              },
              "logView": true,
              "agreeCount": 154,
              "disagreeCount": 0,
              "todo": {
                "count": 23
              },
              "user": {
                "id": "12174193",
                "firstName": "Visit Greece",
                "gender": "none",
                "photo": {
                  "prefix": "https:\/\/igx.4sqi.net\/img\/user\/",
                  "suffix": "\/WP3HWZLXEZT311P4.png"
                },
                "type": "page"
              }
            }
          ],
          "referralId": "e-0-4adcdadff964a5205b5821e3-2"
        }
      ]
    }
  ]
}